-a="/home/43572148m/Imatges/UnityApps/Projects/Coche Pruebas/Library/PlayerScriptAssemblies/Assembly-CSharp.dll"
-a="/home/43572148m/Imatges/UnityApps/Projects/Coche Pruebas/Library/PlayerScriptAssemblies/UnityEngine.TestRunner.dll"
-a="/home/43572148m/Imatges/UnityApps/Projects/Coche Pruebas/Library/PlayerScriptAssemblies/Unity.Timeline.dll"
-a="/home/43572148m/Imatges/UnityApps/Projects/Coche Pruebas/Library/PlayerScriptAssemblies/Unity.TextMeshPro.dll"
-a="/home/43572148m/Imatges/UnityApps/Projects/Coche Pruebas/Library/PlayerScriptAssemblies/UnityEngine.UI.dll"
-a="/home/43572148m/Imatges/UnityApps/Projects/Coche Pruebas/Library/PackageCache/com.unity.ext.nunit@1.0.6/net35/unity-custom/nunit.framework.dll"
-s="/home/43572148m/Unity/Hub/Editor/2020.3.29f1/Editor/Data/Managed/UnityEngine"
-s="/home/43572148m/Imatges/UnityApps/Projects/Coche Pruebas/Library/PlayerScriptAssemblies"
-s="/home/43572148m/Imatges/UnityApps/Projects/Coche Pruebas/Library/PackageCache/com.unity.ext.nunit@1.0.6/net35/unity-custom"
-s="/home/43572148m/Unity/Hub/Editor/2020.3.29f1/Editor/Data/Managed/UnityEngine"
-s="/home/43572148m/Unity/Hub/Editor/2020.3.29f1/Editor/Data/NetStandard/ref/2.0.0"
-s="/home/43572148m/Unity/Hub/Editor/2020.3.29f1/Editor/Data/NetStandard/compat/2.0.0/shims/netstandard"
-s="/home/43572148m/Unity/Hub/Editor/2020.3.29f1/Editor/Data/NetStandard/Extensions/2.0.0"
-s="/home/43572148m/Unity/Hub/Editor/2020.3.29f1/Editor/Data/NetStandard/compat/2.0.0/shims/netfx"
-o="/home/43572148m/Imatges/UnityApps/Projects/Coche Pruebas/Library/BuildPlayerData/Player"
-rn="RuntimeInitializeOnLoads.json"
-tn="TypeDb-All.json"
